HW2
…
dep_delay_summary

# A tibble: 24 × 7
   Weather_Variable origin      n mean_dep_delay median_dep_delay mode_dep_delay
   <chr>            <chr>   <int>          <dbl>            <dbl>          <dbl>
 1 temp             EWR    116956           15.1               -1             -4
 2 temp             JFK    108875           12.1               -1             -3
 3 temp             LGA    101145           10.4               -3             -5
 4 dewp             EWR    116956           15.1               -1             -4
 5 dewp             JFK    108875           12.1               -1             -3
 6 dewp             LGA    101145           10.4               -3             -5
 7 humid            EWR    116956           15.1               -1             -4
 8 humid            JFK    108875           12.1               -1             -3
 9 humid            LGA    101145           10.4               -3             -5
10 wind_speed       EWR    116946           15.1               -1             -4
# ℹ 14 more rows
# ℹ 1 more variable: sd_dep_delay <dbl>
…
print(cor_by_origin_flags)

# A tibble: 24 × 3
   origin Weather_Flag  Correlation
   <chr>  <chr>               <dbl>
 1 EWR    Any_precip        0.113  
 2 EWR    Heavy_precip      0.0182 
 3 EWR    low_vis           0.0600 
 4 EWR    High_wind         0.0241 
 5 EWR    High_gust         0.0313 
 6 EWR    freezing         -0.00331
 7 EWR    low_pressure      0.0798 
 8 EWR    High_humidity     0.0882 
 9 JFK    Any_precip        0.117  
10 JFK    Heavy_precip      0.00232
# ℹ 14 more rows
…
